eye
…
blink(amd)
#> The lifecycle of blink() has expired. It will no longer be
#>   maintained, but will be kept in the package.
#> Warning: Data seems already myopic - no changes made. ?myop for help
#> From etdrs. Could be etdrs, logmar, snellendec
#> Unclear which is the eye column. Counting id only.
#> Specify eye column with "eye_col" argument
#> 
#> ── blink ───────────────────────────────────────────────────────────────────────
#> ══ Data ════════════════════════════════
#> # A tibble: 118,255 × 11
#>    patid sex   age   avdays_induc ethnicity loaded  time injgiven va       regimen
#>    <chr> <chr> <fct>        <dbl> <chr>     <lgl>  <int> <lgl>    <logmar> <chr>  
#>  1 id_1  m     60-69           28 se_asian  TRUE       0 TRUE     0.30     ranibi…
#>  2 id_1  m     60-69           28 se_asian  TRUE      28 TRUE     0.30     ranibi…
#>  3 id_1  m     60-69           28 se_asian  TRUE      56 TRUE     0.30     ranibi…
#>  4 id_1  m     60-69           28 se_asian  TRUE      91 TRUE     0.40     ranibi…
#>  5 id_1  m     60-69           28 se_asian  TRUE     131 TRUE     0.46     ranibi…
#>  6 id_1  m     60-69           28 se_asian  TRUE     173 TRUE     0.40     ranibi…
#>  7 id_1  m     60-69           28 se_asian  TRUE     236 TRUE     0.50     ranibi…
#>  8 id_1  m     60-69           28 se_asian  TRUE     278 TRUE     0.50     ranibi…
#>  9 id_1  m     60-69           28 se_asian  TRUE     411 TRUE     0.60     ranibi…
#> 10 id_1  m     60-69           28 se_asian  TRUE     453 TRUE     0.54     ranibi…
#> # … with 118,245 more rows, and 1 more variable: pre2013 <lgl>
…
